^C:\USERS\PARK\DOCUMENTS\VISUAL STUDIO 2013\PROJECTS\SPH_2\SPH_2\DEBUG\GRID.OBJ|C:\USERS\PARK\DOCUMENTS\VISUAL STUDIO 2013\PROJECTS\SPH_2\SPH_2\DEBUG\MAIN.OBJ|C:\USERS\PARK\DOCUMENTS\VISUAL STUDIO 2013\PROJECTS\SPH_2\SPH_2\DEBUG\PARTICLE.OBJ|C:\USERS\PARK\DOCUMENTS\VISUAL STUDIO 2013\PROJECTS\SPH_2\SPH_2\DEBUG\SPH.OBJ|C:\USERS\PARK\DOCUMENTS\VISUAL STUDIO 2013\PROJECTS\SPH_2\SPH_2\DEBUG\VECTOR.OBJ
C:\USERS\PARK\DOCUMENTS\VISUAL STUDIO 2013\PROJECTS\SPH_2\DEBUG\SPH_2.ILK
C:\USERS\PARK\DOCUMENTS\VISUAL STUDIO 2013\PROJECTS\SPH_2\DEBUG\SPH_2.EXE
C:\USERS\PARK\DOCUMENTS\VISUAL STUDIO 2013\PROJECTS\SPH_2\DEBUG\SPH_2.PDB
